{
	"info": {
		"_postman_id": "084450bb-67f9-499e-ac47-0f28ef67fc14",
		"name": "API#2. Данные о реализации Адресной программы по ремонту дорог на соответствующий год",
		"schema": "https://schema.getpostman.com/json/collection/v2.1.0/collection.json",
		"_exporter_id": "23434795"
	},
	"item": [
		{
			"name": "TK#5. Вызвать страницу с невалидным номером (негатив)",
			"event": [
				{
					"listen": "prerequest",
					"script": {
						"exec": [
							""
						],
						"type": "text/javascript"
					}
				}
			],
			"request": {
				"auth": {
					"type": "bearer",
					"bearer": [
						{
							"key": "token",
							"value": "eyJhbGciOiJSUzI1NiIsInR5cCIgOiAiSldUIiwia2lkIiA6ICJhU1RaZm42bHpTdURYcUttRkg1SzN5UDFhT0FxUkhTNm9OendMUExaTXhFIn0.eyJleHAiOjE3Nzg0MzE4NjQsImlhdCI6MTY4MzczNzQ2NCwianRpIjoiNjRkYTYyMWItYzQwZi00ZDNmLTkxYTctMjc4YjFiYTFmZjhjIiwiaXNzIjoiaHR0cHM6Ly9rYy5wZXRlcnNidXJnLnJ1L3JlYWxtcy9lZ3MtYXBpIiwiYXVkIjoiYWNjb3VudCIsInN1YiI6ImQ1NDExNjBhLTk5YWItNGY2My04ZDVhLWVkZDMyNGUxYzlhOCIsInR5cCI6IkJlYXJlciIsImF6cCI6ImFkbWluLXJlc3QtY2xpZW50Iiwic2Vzc2lvbl9zdGF0ZSI6IjkzNTdlMjA2LWNlMmUtNGZkMi05MDc2LTRhOTEyZjA4NzYzOSIsImFjciI6IjEiLCJhbGxvd2VkLW9yaWdpbnMiOlsiLyoiXSwicmVhbG1fYWNjZXNzIjp7InJvbGVzIjpbImRlZmF1bHQtcm9sZXMtZWdzLWFwaSIsIm9mZmxpbmVfYWNjZXNzIiwidW1hX2F1dGhvcml6YXRpb24iXX0sInJlc291cmNlX2FjY2VzcyI6eyJhY2NvdW50Ijp7InJvbGVzIjpbIm1hbmFnZS1hY2NvdW50IiwibWFuYWdlLWFjY291bnQtbGlua3MiLCJ2aWV3LXByb2ZpbGUiXX19LCJzY29wZSI6ImVtYWlsIHByb2ZpbGUiLCJzaWQiOiI5MzU3ZTIwNi1jZTJlLTRmZDItOTA3Ni00YTkxMmYwODc2MzkiLCJlbWFpbF92ZXJpZmllZCI6ZmFsc2UsIm5hbWUiOiLQkNC90YLQvtC9INCX0Y_QsdC60LjQvSIsInByZWZlcnJlZF91c2VybmFtZSI6ImU2ODU3YWU2Y2NmZjQwMDhjYjVjNjQ4ODlmZmE0Y2Y0IiwiZ2l2ZW5fbmFtZSI6ItCQ0L3RgtC-0L0iLCJmYW1pbHlfbmFtZSI6ItCX0Y_QsdC60LjQvSJ9.BMkQB5cBzB3woestRrxDFW1UnUtg0kprZ-mcPIv_RJAKgr5CnrHZ11e2cAy9DFVRtJSm4bxPOQPh8RIH1m6c3GEBln8M_sb0SyfhdztJP-Fmcr2MMTYc2SKavIRv6xyweV8xJkz4vlWKL4ply517XsD1bTvzFOIgT-tDSnZ9UmTYs5RUnPe12oGRp2NcNDI8YJPb-KbQb7Xt59LPvXvuOq1GRxCxVWjb2TbESUUJ51AAoiQ5zW_Ry18wp1TcAGKNRORVRWu8aHeT_HYBFQ-WZ5Gsf5ePKbMTz_dsV7SgaeAsz8GocmuzsGw91QhQ_ywN-qeneboFe1zSXNBxM9wePA",
							"type": "string"
						}
					]
				},
				"method": "GET",
				"header": [],
				"url": {
					"raw": "https://spb-classif.gate.petersburg.ru/api/v2/datasets/128/versions/latest/data/149/?page=12",
					"protocol": "https",
					"host": [
						"spb-classif",
						"gate",
						"petersburg",
						"ru"
					],
					"path": [
						"api",
						"v2",
						"datasets",
						"128",
						"versions",
						"latest",
						"data",
						"149",
						""
					],
					"query": [
						{
							"key": "page",
							"value": "12"
						}
					]
				}
			},
			"response": [
				{
					"name": "TK#5. Вызвать страницу с невалидным номером (пагинация)",
					"originalRequest": {
						"method": "GET",
						"header": [],
						"url": {
							"raw": "https://spb-classif.gate.petersburg.ru/api/v2/datasets/128/versions/latest/data/149/?page=12",
							"protocol": "https",
							"host": [
								"spb-classif",
								"gate",
								"petersburg",
								"ru"
							],
							"path": [
								"api",
								"v2",
								"datasets",
								"128",
								"versions",
								"latest",
								"data",
								"149",
								""
							],
							"query": [
								{
									"key": "page",
									"value": "12"
								}
							]
						}
					},
					"status": "Not Found",
					"code": 404,
					"_postman_previewlanguage": "json",
					"header": [
						{
							"key": "Server",
							"value": "nginx"
						},
						{
							"key": "Date",
							"value": "Thu, 27 Apr 2023 19:18:30 GMT"
						},
						{
							"key": "Content-Type",
							"value": "application/json"
						},
						{
							"key": "Content-Length",
							"value": "135"
						},
						{
							"key": "Connection",
							"value": "keep-alive"
						},
						{
							"key": "allow",
							"value": "GET, HEAD, OPTIONS"
						},
						{
							"key": "Expires",
							"value": "Thu, 27 Apr 2023 19:19:08 GMT"
						},
						{
							"key": "cache-control",
							"value": "max-age=0, no-cache, no-store, must-revalidate, private"
						},
						{
							"key": "x-content-type-options",
							"value": "nosniff"
						},
						{
							"key": "referrer-policy",
							"value": "same-origin"
						},
						{
							"key": "x-frame-options",
							"value": "DENY"
						},
						{
							"key": "vary",
							"value": "Origin, Cookie"
						},
						{
							"key": "Access-Control-Allow-Origin",
							"value": "*"
						},
						{
							"key": "Access-Control-Allow-Methods",
							"value": "*"
						},
						{
							"key": "Access-Control-Max-Age",
							"value": "5"
						},
						{
							"key": "Access-Control-Expose-Headers",
							"value": "*"
						},
						{
							"key": "Access-Control-Allow-Headers",
							"value": "*"
						},
						{
							"key": "Apisix-Cache-Status",
							"value": "MISS"
						}
					],
					"cookie": [],
					"body": "{\n    \"detail\": \"Неправильная страница\"\n}"
				}
			]
		},
		{
			"name": "TK#6. Заменить протокол HTTPS на HTTP (негатив)",
			"event": [
				{
					"listen": "prerequest",
					"script": {
						"exec": [
							""
						],
						"type": "text/javascript"
					}
				}
			],
			"request": {
				"auth": {
					"type": "bearer",
					"bearer": [
						{
							"key": "token",
							"value": "eyJhbGciOiJIUzI1NiIsInR5cCI6IkpXVCJ9.eyJrZXkiOiJ2a2lkMDAwMDAwMDAwIiwiZXhwIjoxNjk0NDU1Mjg5fQ.3KGoatXYEPgjy7CFMObA3au7aZMdJzoTlHPm6TmPLtI",
							"type": "string"
						}
					]
				},
				"method": "GET",
				"header": [],
				"url": {
					"raw": "http://spb-classif.gate.petersburg.ru/api/v2/datasets/128/versions/latest/data/149/",
					"protocol": "http",
					"host": [
						"spb-classif",
						"gate",
						"petersburg",
						"ru"
					],
					"path": [
						"api",
						"v2",
						"datasets",
						"128",
						"versions",
						"latest",
						"data",
						"149",
						""
					],
					"query": [
						{
							"key": "page",
							"value": "3",
							"disabled": true
						}
					]
				}
			},
			"response": [
				{
					"name": "TK#6. Заменить протокол HTTPS на HTTP",
					"originalRequest": {
						"method": "GET",
						"header": [],
						"url": {
							"raw": "http://spb-classif.gate.petersburg.ru/api/v2/datasets/128/versions/latest/data/149/?page=1",
							"protocol": "http",
							"host": [
								"spb-classif",
								"gate",
								"petersburg",
								"ru"
							],
							"path": [
								"api",
								"v2",
								"datasets",
								"128",
								"versions",
								"latest",
								"data",
								"149",
								""
							],
							"query": [
								{
									"key": "page",
									"value": "1"
								}
							]
						}
					},
					"status": "OK",
					"code": 200,
					"_postman_previewlanguage": "json",
					"header": [
						{
							"key": "Server",
							"value": "nginx"
						},
						{
							"key": "Date",
							"value": "Thu, 27 Apr 2023 19:18:45 GMT"
						},
						{
							"key": "Content-Type",
							"value": "application/json"
						},
						{
							"key": "Content-Length",
							"value": "3839"
						},
						{
							"key": "Connection",
							"value": "keep-alive"
						},
						{
							"key": "allow",
							"value": "GET, HEAD, OPTIONS"
						},
						{
							"key": "Expires",
							"value": "Thu, 27 Apr 2023 19:19:23 GMT"
						},
						{
							"key": "cache-control",
							"value": "max-age=0, no-cache, no-store, must-revalidate, private"
						},
						{
							"key": "x-content-type-options",
							"value": "nosniff"
						},
						{
							"key": "referrer-policy",
							"value": "same-origin"
						},
						{
							"key": "x-frame-options",
							"value": "DENY"
						},
						{
							"key": "vary",
							"value": "Origin, Cookie"
						},
						{
							"key": "Access-Control-Allow-Origin",
							"value": "*"
						},
						{
							"key": "Access-Control-Allow-Methods",
							"value": "*"
						},
						{
							"key": "Access-Control-Max-Age",
							"value": "5"
						},
						{
							"key": "Access-Control-Expose-Headers",
							"value": "*"
						},
						{
							"key": "Access-Control-Allow-Headers",
							"value": "*"
						},
						{
							"key": "Apisix-Cache-Status",
							"value": "MISS"
						}
					],
					"cookie": [],
					"body": "{\n    \"count\": 106,\n    \"next\": \"https://spb-classif.gate.petersburg.ru/api/v2/datasets/128/versions/latest/data/149/?page=2\",\n    \"previous\": null,\n    \"results\": [\n        {\n            \"number\": 1,\n            \"district\": \"АДМИРАЛТЕЙСКИЙ РАЙОН\",\n            \"object\": \"Галерная ул.\",\n            \"area_of_the_roadway\": \"4.12\",\n            \"area_of_the_sidewalk\": \"2.3\",\n            \"all\": \"6.42\",\n            \"price\": \"17752.2\",\n            \"note\": null\n        },\n        {\n            \"number\": 2,\n            \"district\": \"АДМИРАЛТЕЙСКИЙ РАЙОН\",\n            \"object\": \"Пл. Труда\",\n            \"area_of_the_roadway\": \"13.26\",\n            \"area_of_the_sidewalk\": \"1.71\",\n            \"all\": \"14.97\",\n            \"price\": \"46390.9\",\n            \"note\": null\n        },\n        {\n            \"number\": 3,\n            \"district\": \"АДМИРАЛТЕЙСКИЙ РАЙОН\",\n            \"object\": \"Псковская ул.\",\n            \"area_of_the_roadway\": \"3.75\",\n            \"area_of_the_sidewalk\": \"2.92\",\n            \"all\": \"6.67\",\n            \"price\": \"18769.5\",\n            \"note\": null\n        },\n        {\n            \"number\": 4,\n            \"district\": \"АДМИРАЛТЕЙСКИЙ РАЙОН\",\n            \"object\": \"Ул. Егорова\",\n            \"area_of_the_roadway\": \"8.31\",\n            \"area_of_the_sidewalk\": \"2.83\",\n            \"all\": \"11.14\",\n            \"price\": \"33150.5\",\n            \"note\": null\n        },\n        {\n            \"number\": 5,\n            \"district\": \"АДМИРАЛТЕЙСКИЙ РАЙОН\",\n            \"object\": \"Прачечный пер.\",\n            \"area_of_the_roadway\": \"1.34\",\n            \"area_of_the_sidewalk\": \"0.81\",\n            \"all\": \"2.15\",\n            \"price\": \"6165.7\",\n            \"note\": null\n        },\n        {\n            \"number\": 6,\n            \"district\": \"АДМИРАЛТЕЙСКИЙ РАЙОН\",\n            \"object\": \"Пер. Пирогова\",\n            \"area_of_the_roadway\": \"3.29\",\n            \"area_of_the_sidewalk\": \"1.77\",\n            \"all\": \"5.06\",\n            \"price\": \"14630.9\",\n            \"note\": null\n        },\n        {\n            \"number\": 7,\n            \"district\": \"ВАСИЛЕОСТРОВСКИЙ РАЙОН\",\n            \"object\": \"Шкиперский проток (выборочно)\",\n            \"area_of_the_roadway\": \"31.22\",\n            \"area_of_the_sidewalk\": \"12.41\",\n            \"all\": \"43.63\",\n            \"price\": \"128666.8\",\n            \"note\": null\n        },\n        {\n            \"number\": 8,\n            \"district\": \"ВАСИЛЕОСТРОВСКИЙ РАЙОН\",\n            \"object\": \"Наличная ул. (от Малого пр. В.О до ул. Нахимова)\",\n            \"area_of_the_roadway\": \"22.31\",\n            \"area_of_the_sidewalk\": \"8.91\",\n            \"all\": \"31.22\",\n            \"price\": \"92042.9\",\n            \"note\": null\n        },\n        {\n            \"number\": 9,\n            \"district\": \"ВАСИЛЕОСТРОВСКИЙ РАЙОН\",\n            \"object\": \"14-15-я линии В.О.\",\n            \"area_of_the_roadway\": \"21.3\",\n            \"area_of_the_sidewalk\": \"12.74\",\n            \"all\": \"34.04\",\n            \"price\": \"97693\",\n            \"note\": null\n        },\n        {\n            \"number\": 10,\n            \"district\": \"ВАСИЛЕОСТРОВСКИЙ РАЙОН\",\n            \"object\": \"Университетская наб.\",\n            \"area_of_the_roadway\": \"28.47\",\n            \"area_of_the_sidewalk\": \"7.48\",\n            \"all\": \"35.95\",\n            \"price\": \"108435.7\",\n            \"note\": null\n        }\n    ]\n}"
				}
			]
		},
		{
			"name": "TK#7. Время ответа не превышает 1 сек (позитив)",
			"event": [
				{
					"listen": "prerequest",
					"script": {
						"exec": [
							""
						],
						"type": "text/javascript"
					}
				},
				{
					"listen": "test",
					"script": {
						"exec": [
							"pm.test(\"Response time is less than 1s\", function () {\r",
							"    pm.expect(pm.response.responseTime).to.be.below(1000);\r",
							"});"
						],
						"type": "text/javascript"
					}
				}
			],
			"request": {
				"auth": {
					"type": "bearer",
					"bearer": [
						{
							"key": "token",
							"value": "eyJhbGciOiJSUzI1NiIsInR5cCIgOiAiSldUIiwia2lkIiA6ICJhU1RaZm42bHpTdURYcUttRkg1SzN5UDFhT0FxUkhTNm9OendMUExaTXhFIn0.eyJleHAiOjE3Nzg0MzE4NjQsImlhdCI6MTY4MzczNzQ2NCwianRpIjoiNjRkYTYyMWItYzQwZi00ZDNmLTkxYTctMjc4YjFiYTFmZjhjIiwiaXNzIjoiaHR0cHM6Ly9rYy5wZXRlcnNidXJnLnJ1L3JlYWxtcy9lZ3MtYXBpIiwiYXVkIjoiYWNjb3VudCIsInN1YiI6ImQ1NDExNjBhLTk5YWItNGY2My04ZDVhLWVkZDMyNGUxYzlhOCIsInR5cCI6IkJlYXJlciIsImF6cCI6ImFkbWluLXJlc3QtY2xpZW50Iiwic2Vzc2lvbl9zdGF0ZSI6IjkzNTdlMjA2LWNlMmUtNGZkMi05MDc2LTRhOTEyZjA4NzYzOSIsImFjciI6IjEiLCJhbGxvd2VkLW9yaWdpbnMiOlsiLyoiXSwicmVhbG1fYWNjZXNzIjp7InJvbGVzIjpbImRlZmF1bHQtcm9sZXMtZWdzLWFwaSIsIm9mZmxpbmVfYWNjZXNzIiwidW1hX2F1dGhvcml6YXRpb24iXX0sInJlc291cmNlX2FjY2VzcyI6eyJhY2NvdW50Ijp7InJvbGVzIjpbIm1hbmFnZS1hY2NvdW50IiwibWFuYWdlLWFjY291bnQtbGlua3MiLCJ2aWV3LXByb2ZpbGUiXX19LCJzY29wZSI6ImVtYWlsIHByb2ZpbGUiLCJzaWQiOiI5MzU3ZTIwNi1jZTJlLTRmZDItOTA3Ni00YTkxMmYwODc2MzkiLCJlbWFpbF92ZXJpZmllZCI6ZmFsc2UsIm5hbWUiOiLQkNC90YLQvtC9INCX0Y_QsdC60LjQvSIsInByZWZlcnJlZF91c2VybmFtZSI6ImU2ODU3YWU2Y2NmZjQwMDhjYjVjNjQ4ODlmZmE0Y2Y0IiwiZ2l2ZW5fbmFtZSI6ItCQ0L3RgtC-0L0iLCJmYW1pbHlfbmFtZSI6ItCX0Y_QsdC60LjQvSJ9.BMkQB5cBzB3woestRrxDFW1UnUtg0kprZ-mcPIv_RJAKgr5CnrHZ11e2cAy9DFVRtJSm4bxPOQPh8RIH1m6c3GEBln8M_sb0SyfhdztJP-Fmcr2MMTYc2SKavIRv6xyweV8xJkz4vlWKL4ply517XsD1bTvzFOIgT-tDSnZ9UmTYs5RUnPe12oGRp2NcNDI8YJPb-KbQb7Xt59LPvXvuOq1GRxCxVWjb2TbESUUJ51AAoiQ5zW_Ry18wp1TcAGKNRORVRWu8aHeT_HYBFQ-WZ5Gsf5ePKbMTz_dsV7SgaeAsz8GocmuzsGw91QhQ_ywN-qeneboFe1zSXNBxM9wePA",
							"type": "string"
						}
					]
				},
				"method": "GET",
				"header": [],
				"url": {
					"raw": "https://spb-classif.gate.petersburg.ru/api/v2/datasets/128/versions/latest/data/149/",
					"protocol": "https",
					"host": [
						"spb-classif",
						"gate",
						"petersburg",
						"ru"
					],
					"path": [
						"api",
						"v2",
						"datasets",
						"128",
						"versions",
						"latest",
						"data",
						"149",
						""
					],
					"query": [
						{
							"key": "page",
							"value": "3",
							"disabled": true
						}
					]
				}
			},
			"response": [
				{
					"name": "TK#7. Время ответа не превышает 1 сек",
					"originalRequest": {
						"method": "GET",
						"header": [],
						"url": {
							"raw": "https://spb-classif.gate.petersburg.ru/api/v2/datasets/128/versions/latest/data/149/",
							"protocol": "https",
							"host": [
								"spb-classif",
								"gate",
								"petersburg",
								"ru"
							],
							"path": [
								"api",
								"v2",
								"datasets",
								"128",
								"versions",
								"latest",
								"data",
								"149",
								""
							],
							"query": [
								{
									"key": "page",
									"value": "3",
									"disabled": true
								}
							]
						}
					},
					"status": "OK",
					"code": 200,
					"_postman_previewlanguage": "json",
					"header": [
						{
							"key": "Server",
							"value": "nginx"
						},
						{
							"key": "Date",
							"value": "Thu, 27 Apr 2023 19:19:08 GMT"
						},
						{
							"key": "Content-Type",
							"value": "application/json"
						},
						{
							"key": "Content-Length",
							"value": "3839"
						},
						{
							"key": "Connection",
							"value": "keep-alive"
						},
						{
							"key": "allow",
							"value": "GET, HEAD, OPTIONS"
						},
						{
							"key": "Expires",
							"value": "Thu, 27 Apr 2023 19:19:46 GMT"
						},
						{
							"key": "cache-control",
							"value": "max-age=0, no-cache, no-store, must-revalidate, private"
						},
						{
							"key": "x-content-type-options",
							"value": "nosniff"
						},
						{
							"key": "referrer-policy",
							"value": "same-origin"
						},
						{
							"key": "x-frame-options",
							"value": "DENY"
						},
						{
							"key": "vary",
							"value": "Origin, Cookie"
						},
						{
							"key": "Access-Control-Allow-Origin",
							"value": "*"
						},
						{
							"key": "Access-Control-Allow-Methods",
							"value": "*"
						},
						{
							"key": "Access-Control-Max-Age",
							"value": "5"
						},
						{
							"key": "Access-Control-Expose-Headers",
							"value": "*"
						},
						{
							"key": "Access-Control-Allow-Headers",
							"value": "*"
						},
						{
							"key": "Apisix-Cache-Status",
							"value": "MISS"
						}
					],
					"cookie": [],
					"body": "{\n    \"count\": 106,\n    \"next\": \"https://spb-classif.gate.petersburg.ru/api/v2/datasets/128/versions/latest/data/149/?page=2\",\n    \"previous\": null,\n    \"results\": [\n        {\n            \"number\": 1,\n            \"district\": \"АДМИРАЛТЕЙСКИЙ РАЙОН\",\n            \"object\": \"Галерная ул.\",\n            \"area_of_the_roadway\": \"4.12\",\n            \"area_of_the_sidewalk\": \"2.3\",\n            \"all\": \"6.42\",\n            \"price\": \"17752.2\",\n            \"note\": null\n        },\n        {\n            \"number\": 2,\n            \"district\": \"АДМИРАЛТЕЙСКИЙ РАЙОН\",\n            \"object\": \"Пл. Труда\",\n            \"area_of_the_roadway\": \"13.26\",\n            \"area_of_the_sidewalk\": \"1.71\",\n            \"all\": \"14.97\",\n            \"price\": \"46390.9\",\n            \"note\": null\n        },\n        {\n            \"number\": 3,\n            \"district\": \"АДМИРАЛТЕЙСКИЙ РАЙОН\",\n            \"object\": \"Псковская ул.\",\n            \"area_of_the_roadway\": \"3.75\",\n            \"area_of_the_sidewalk\": \"2.92\",\n            \"all\": \"6.67\",\n            \"price\": \"18769.5\",\n            \"note\": null\n        },\n        {\n            \"number\": 4,\n            \"district\": \"АДМИРАЛТЕЙСКИЙ РАЙОН\",\n            \"object\": \"Ул. Егорова\",\n            \"area_of_the_roadway\": \"8.31\",\n            \"area_of_the_sidewalk\": \"2.83\",\n            \"all\": \"11.14\",\n            \"price\": \"33150.5\",\n            \"note\": null\n        },\n        {\n            \"number\": 5,\n            \"district\": \"АДМИРАЛТЕЙСКИЙ РАЙОН\",\n            \"object\": \"Прачечный пер.\",\n            \"area_of_the_roadway\": \"1.34\",\n            \"area_of_the_sidewalk\": \"0.81\",\n            \"all\": \"2.15\",\n            \"price\": \"6165.7\",\n            \"note\": null\n        },\n        {\n            \"number\": 6,\n            \"district\": \"АДМИРАЛТЕЙСКИЙ РАЙОН\",\n            \"object\": \"Пер. Пирогова\",\n            \"area_of_the_roadway\": \"3.29\",\n            \"area_of_the_sidewalk\": \"1.77\",\n            \"all\": \"5.06\",\n            \"price\": \"14630.9\",\n            \"note\": null\n        },\n        {\n            \"number\": 7,\n            \"district\": \"ВАСИЛЕОСТРОВСКИЙ РАЙОН\",\n            \"object\": \"Шкиперский проток (выборочно)\",\n            \"area_of_the_roadway\": \"31.22\",\n            \"area_of_the_sidewalk\": \"12.41\",\n            \"all\": \"43.63\",\n            \"price\": \"128666.8\",\n            \"note\": null\n        },\n        {\n            \"number\": 8,\n            \"district\": \"ВАСИЛЕОСТРОВСКИЙ РАЙОН\",\n            \"object\": \"Наличная ул. (от Малого пр. В.О до ул. Нахимова)\",\n            \"area_of_the_roadway\": \"22.31\",\n            \"area_of_the_sidewalk\": \"8.91\",\n            \"all\": \"31.22\",\n            \"price\": \"92042.9\",\n            \"note\": null\n        },\n        {\n            \"number\": 9,\n            \"district\": \"ВАСИЛЕОСТРОВСКИЙ РАЙОН\",\n            \"object\": \"14-15-я линии В.О.\",\n            \"area_of_the_roadway\": \"21.3\",\n            \"area_of_the_sidewalk\": \"12.74\",\n            \"all\": \"34.04\",\n            \"price\": \"97693\",\n            \"note\": null\n        },\n        {\n            \"number\": 10,\n            \"district\": \"ВАСИЛЕОСТРОВСКИЙ РАЙОН\",\n            \"object\": \"Университетская наб.\",\n            \"area_of_the_roadway\": \"28.47\",\n            \"area_of_the_sidewalk\": \"7.48\",\n            \"all\": \"35.95\",\n            \"price\": \"108435.7\",\n            \"note\": null\n        }\n    ]\n}"
				}
			]
		},
		{
			"name": "TK#8. Указать в запросе неполный endpoint (негатив)",
			"event": [
				{
					"listen": "prerequest",
					"script": {
						"exec": [
							""
						],
						"type": "text/javascript"
					}
				},
				{
					"listen": "test",
					"script": {
						"exec": [
							"pm.test(\"Response time is less than 1s\", function () {\r",
							"    pm.expect(pm.response.responseTime).to.be.below(1000);\r",
							"});"
						],
						"type": "text/javascript"
					}
				}
			],
			"request": {
				"auth": {
					"type": "bearer",
					"bearer": [
						{
							"key": "token",
							"value": "eyJhbGciOiJIUzI1NiIsInR5cCI6IkpXVCJ9.eyJrZXkiOiJ2a2lkMDAwMDAwMDAwIiwiZXhwIjoxNjk0NDU1Mjg5fQ.3KGoatXYEPgjy7CFMObA3au7aZMdJzoTlHPm6TmPLtI",
							"type": "string"
						}
					]
				},
				"method": "GET",
				"header": [],
				"url": {
					"raw": "https://spb-classif.gate.petersburg.ru/api/v2/datasets/128/",
					"protocol": "https",
					"host": [
						"spb-classif",
						"gate",
						"petersburg",
						"ru"
					],
					"path": [
						"api",
						"v2",
						"datasets",
						"128",
						""
					],
					"query": [
						{
							"key": "page",
							"value": "3",
							"disabled": true
						}
					]
				}
			},
			"response": [
				{
					"name": "TK#8. Указать в запросе неполный endpoint (негатив)",
					"originalRequest": {
						"method": "GET",
						"header": [],
						"url": {
							"raw": "https://spb-classif.gate.petersburg.ru/api/v2/datasets/128/",
							"protocol": "https",
							"host": [
								"spb-classif",
								"gate",
								"petersburg",
								"ru"
							],
							"path": [
								"api",
								"v2",
								"datasets",
								"128",
								""
							],
							"query": [
								{
									"key": "page",
									"value": "3",
									"disabled": true
								}
							]
						}
					},
					"status": "OK",
					"code": 200,
					"_postman_previewlanguage": "json",
					"header": [
						{
							"key": "Server",
							"value": "nginx"
						},
						{
							"key": "Date",
							"value": "Thu, 27 Apr 2023 19:19:21 GMT"
						},
						{
							"key": "Content-Type",
							"value": "application/json"
						},
						{
							"key": "Content-Length",
							"value": "2844"
						},
						{
							"key": "Connection",
							"value": "keep-alive"
						},
						{
							"key": "allow",
							"value": "GET, HEAD, OPTIONS"
						},
						{
							"key": "Expires",
							"value": "Thu, 27 Apr 2023 19:19:59 GMT"
						},
						{
							"key": "cache-control",
							"value": "max-age=0, no-cache, no-store, must-revalidate, private"
						},
						{
							"key": "x-content-type-options",
							"value": "nosniff"
						},
						{
							"key": "referrer-policy",
							"value": "same-origin"
						},
						{
							"key": "x-frame-options",
							"value": "DENY"
						},
						{
							"key": "vary",
							"value": "Origin, Cookie"
						},
						{
							"key": "Access-Control-Allow-Origin",
							"value": "*"
						},
						{
							"key": "Access-Control-Allow-Methods",
							"value": "*"
						},
						{
							"key": "Access-Control-Max-Age",
							"value": "5"
						},
						{
							"key": "Access-Control-Expose-Headers",
							"value": "*"
						},
						{
							"key": "Access-Control-Allow-Headers",
							"value": "*"
						},
						{
							"key": "Apisix-Cache-Status",
							"value": "MISS"
						}
					],
					"cookie": [],
					"body": "{\n    \"id\": 128,\n    \"agency\": \"Комитет по развитию транспортной инфраструктуры Санкт-Петербурга\",\n    \"name\": \"Справка по реализации Адресной программы по ремонту дорог на соответствующий год\",\n    \"short_name\": \"Справка по реализации Адресной программы по ремонту дорог на соответствующий год\",\n    \"name_en\": \"spravka-po-realizacii-Adresnoj-programmy-po-remontu-dorog-na-sootvetstvuyushij-god\",\n    \"passport_type\": \"Набор данных\",\n    \"description\": \"Адресная программа ремонта дорог\",\n    \"additional_description\": \"Предыдущие версии набора\\nhttp://data.gov.spb.ru/archive/%D0%9A%D0%BE%D0%BC%D0%B8%D1%82%D0%B5%D1%82%20%D0%BF%D0%BE%20%D1%80%D0%B0%D0%B7%D0%B2%D0%B8%D1%82%D0%B8%D1%8E%20%D1%82%D1%80%D0%B0%D0%BD%D1%81%D0%BF%D0%BE%D1%80%D1%82%D0%BD%D0%BE%D0%B9%20%D0%B8%D0%BD%D1%84%D1%80%D0%B0%D1%81%D1%82%D1%80%D1%83%D0%BA%D1%82%D1%83%D1%80%D1%8B%20%D0%A1%D0%B0%D0%BD%D0%BA%D1%82-%D0%9F%D0%B5%D1%82%D0%B5%D1%80%D0%B1%D1%83%D1%80%D0%B3%D0%B0/88/\",\n    \"category\": \"Дороги и транспорт\",\n    \"tags\": [\n        \"Дорога\",\n        \"Ремонт\"\n    ],\n    \"periodicity\": \"Ежеквартально\",\n    \"periodicity_description\": \"\",\n    \"inf_system\": \"—\",\n    \"data_set_url\": \"\",\n    \"has_geodata\": false,\n    \"responsible_persons\": [\n        {\n            \"name\": \"Рыжов Николай Витальевич\",\n            \"phone\": \"78125761293\",\n            \"email\": \"ryjov@krti.gov.spb.ru\"\n        }\n    ]\n}"
				}
			]
		}
	],
	"auth": {
		"type": "bearer",
		"bearer": [
			{
				"key": "token",
				"value": "eyJhbGciOiJIUzI1NiIsInR5cCI6IkpXVCJ9.eyJrZXkiOiJ2a2lkMDAwMDAwMDAwIiwiZXhwIjoxNjk0NDU1Mjg5fQ.3KGoatXYEPgjy7CFMObA3au7aZMdJzoTlHPm6TmPLtI",
				"type": "string"
			}
		]
	},
	"event": [
		{
			"listen": "prerequest",
			"script": {
				"type": "text/javascript",
				"exec": [
					""
				]
			}
		},
		{
			"listen": "test",
			"script": {
				"type": "text/javascript",
				"exec": [
					""
				]
			}
		}
	]
}